%!PS-Adobe-3.0 EPSF-3.0
%%Creator: cairo 1.14.2 (http://cairographics.org)
%%CreationDate: Mon Feb  1 16:44:39 2016
%%Pages: 1
%%DocumentData: Clean7Bit
%%LanguageLevel: 2
%%BoundingBox: 0 -1 62 60
%%EndComments
%%BeginProlog
save
50 dict begin
/q { gsave } bind def
/Q { grestore } bind def
/cm { 6 array astore concat } bind def
/w { setlinewidth } bind def
/J { setlinecap } bind def
/j { setlinejoin } bind def
/M { setmiterlimit } bind def
/d { setdash } bind def
/m { moveto } bind def
/l { lineto } bind def
/c { curveto } bind def
/h { closepath } bind def
/re { exch dup neg 3 1 roll 5 3 roll moveto 0 rlineto
      0 exch rlineto 0 rlineto closepath } bind def
/S { stroke } bind def
/f { fill } bind def
/f* { eofill } bind def
/n { newpath } bind def
/W { clip } bind def
/W* { eoclip } bind def
/BT { } bind def
/ET { } bind def
/pdfmark where { pop globaldict /?pdfmark /exec load put }
    { globaldict begin /?pdfmark /pop load def /pdfmark
    /cleartomark load def end } ifelse
/BDC { mark 3 1 roll /BDC pdfmark } bind def
/EMC { mark /EMC pdfmark } bind def
/cairo_store_point { /cairo_point_y exch def /cairo_point_x exch def } def
/Tj { show currentpoint cairo_store_point } bind def
/TJ {
  {
    dup
    type /stringtype eq
    { show } { -0.001 mul 0 cairo_font_matrix dtransform rmoveto } ifelse
  } forall
  currentpoint cairo_store_point
} bind def
/cairo_selectfont { cairo_font_matrix aload pop pop pop 0 0 6 array astore
    cairo_font exch selectfont cairo_point_x cairo_point_y moveto } bind def
/Tf { pop /cairo_font exch def /cairo_font_matrix where
      { pop cairo_selectfont } if } bind def
/Td { matrix translate cairo_font_matrix matrix concatmatrix dup
      /cairo_font_matrix exch def dup 4 get exch 5 get cairo_store_point
      /cairo_font where { pop cairo_selectfont } if } bind def
/Tm { 2 copy 8 2 roll 6 array astore /cairo_font_matrix exch def
      cairo_store_point /cairo_font where { pop cairo_selectfont } if } bind def
/g { setgray } bind def
/rg { setrgbcolor } bind def
/d1 { setcachedevice } bind def
%%EndProlog
%%BeginSetup
%%EndSetup
%%Page: 1 1
%%BeginPageSetup
%%PageBoundingBox: 0 -1 62 60
%%EndPageSetup
q 0 -1 62 61 rectclip q
0 g
35.582 59.645 m 33.711 59.688 31.836 59.473 29.969 59.102 c 26.781 58.465
 23.242 57.68 20.535 55.993 c 18.648 54.817 16.09 53.251 14.836 50.985 c
 15.242 52.227 15.461 53.735 14.992 54.872 c 14.203 54.68 13.402 53.544 
12.879 52.926 c 11.777 51.637 10.766 50.247 9.676 48.95 c 8.594 47.661 7.789
 45.817 6.957 44.333 c 6.336 43.215 5.828 42.047 5.641 40.766 c 5.641 40.766
 5.023 39.169 4.492 37.102 c 7.242 38.786 13.43 38.129 16.941 31.254 c 17.031
 31.438 17.324 37.989 18.527 40.778 c 19.371 42.727 24.156 50.192 29.926
 50.606 c 33.41 46.774 31.098 36.266 29.887 34.395 c 29.266 33.442 30.438
 36.434 30.605 39.899 c 30.648 40.864 30.48 48.497 29.391 48.438 c 28.672
 48.399 25.488 42.262 25.113 41.497 c 23.93 39.106 23.086 37.868 22.359 
35.528 c 21.465 32.653 19.348 27.454 18.484 24.559 c 18.199 23.59 17.355
 21.559 18.074 22.473 c 18.086 22.407 18.109 22.344 18.129 22.278 c 18.453
 22.383 18.836 22.473 19.168 22.512 c 21.621 22.813 22.906 23.497 24.426
 25.254 c 24.465 25.258 l 25.367 26.286 26.441 27.356 26.543 27.399 c 26.426
 27.223 31.164 27.758 33.051 26.493 c 36.25 24.344 37.773 21.485 37.938 
19.587 c 38.48 13.18 32.289 10.551 31.434 10.45 c 31.156 10.419 31.133 10.317
 31.148 10.258 c 31.129 10.286 31.098 10.329 31.039 10.391 c 30.559 13.661
 30.535 17.657 26.809 19.481 c 28.605 19.239 30.648 18.391 31.328 16.446
 c 31.879 14.876 31.652 12.77 31.711 11.083 c 32.152 11.278 l 32.121 11.282
 32.102 11.282 32.102 11.282 c 32.145 11.805 32.512 12.743 32.977 14.079
 c 33.734 16.254 34.148 18.016 32.879 20.087 c 31.82 21.817 29.473 23.149
 27.254 23.212 c 25.852 22.54 24.18 22.032 23.441 21.93 c 21.973 21.727 
20.035 21.364 18.582 21.516 c 18.504 21.524 18.465 21.536 18.395 21.547 
c 18.848 20.602 19.539 19.922 19.367 20.329 c 20.246 19.508 20.281 18.532
 18.805 18.969 c 17.406 19.372 15.355 20.766 13.984 20.989 c 13.953 19.626
 15.527 18.352 17.277 17.454 c 17.277 16.844 18.566 15.922 18.812 15.317
 c 18.742 14.962 18.598 14.587 18.547 14.231 c 19.305 14.239 21.527 14.032
 22.012 14.633 c 22.27 14.954 22.199 15.45 22.141 15.86 c 22.031 16.653 
22.141 16.653 22.207 17.446 c 22.531 16.567 23.504 15.258 23.133 14.383 
c 22.703 13.364 20.578 12.95 18.922 13.075 c 18.938 13.055 18.945 13.036
 18.961 13.016 c 17.258 13.223 16.32 12.922 14.93 14.829 c 14.578 14.133
 12.094 14.102 10.582 18.794 c 10.555 18.762 10.527 18.731 10.5 18.7 c 10.48
 18.977 10.441 19.266 10.449 19.524 c 10.469 20.528 10.523 20.754 11.453
 21.208 c 11.766 21.36 12.562 21.383 12.781 21.598 c 13.043 21.856 12.789
 22.204 12.973 22.508 c 13.262 23.001 15.496 22.891 15.496 23.34 c 15.5 
23.879 12.75 28.829 12.75 28.829 c 11.203 30.926 8.953 32.493 6.793 31.813
 c 6.031 31.575 4.414 31.09 3.855 30.376 c 3.676 30.145 3.246 29.602 2.812
 28.973 c 1.746 27.004 l 1.746 27.004 2.32 27.309 2.891 27.712 c 3.465 28.11
 5.332 29.129 7.703 28.356 c 9.492 27.774 10.484 26.137 10.863 25.368 c 
10.531 25.602 9.965 25.962 9.016 26.501 c 5.723 28.379 1.133 24.997 1.133
 24.997 c 1.102 24.962 0.281 27.415 0.594 30.321 c 0.48 30.262 0.379 30.176
 0.309 30.044 c -0.199 29.024 -0.09 24.879 0.691 23.301 c 1.879 23.622 3.031
 25.172 4.508 25.337 c 4.555 25.09 4.547 24.696 4.547 24.696 c 4.879 20.567
 6.34 18.958 6.547 17.153 c 6.418 17.149 4.805 17.438 4.676 17.422 c 5.156
 16.508 6.969 12.032 9.91 9.278 c 12.18 7.161 16.223 5.86 20.32 4.27 c 22.754
 3.325 26.648 3.239 29.113 2.587 c 28.418 1.879 26.844 1.235 26.492 0.262
 c 31.148 -0.609 35.449 0.907 38.418 1.715 c 41.262 2.493 46.246 7.536 49.148
 8.926 c 49.18 7.907 48.996 6.383 49.008 5.333 c 50.641 6.669 52.328 8.618
 53.605 10.305 c 54.426 11.391 54.973 12.563 55.43 13.911 c 55.82 15.067
 57.051 17.301 58.191 20.051 c 56.914 20.672 55.734 21.145 55.734 21.145
 c 55.258 21.422 55.07 21.063 54.895 20.54 c 53.402 16.52 l 53.227 15.997
 52.867 15.965 52.602 16.45 c 50.438 22.317 l 50.172 22.801 49.836 23.04
 49.617 22.536 c 49.617 22.536 48.648 20.325 48.094 19.723 c 47.543 19.122
 46.113 25.477 46.113 25.477 c 45.926 25.997 45.922 26.34 45.625 25.872 
c 45.105 24.344 l 44.809 23.876 44.371 23.899 44.129 24.395 c 42.711 29.059
 l 42.469 29.559 42.688 30.145 43.195 30.368 c 47.777 32.708 l 48.281 32.926
 48.578 32.672 48.434 32.137 c 47.809 30.383 l 47.668 29.848 47.996 30.075
 48.535 30.208 c 52.617 32.723 l 53.152 32.856 53.535 32.516 53.465 31.965
 c 52.598 29.098 l 52.531 28.551 52.879 28.301 53.375 28.54 c 57.25 31.469
 l 57.75 31.712 58.008 31.485 57.836 30.958 c 56.895 26.274 l 56.926 25.18
 59.941 24.95 61.246 24.938 c 61.543 25.114 61.738 25.395 61.754 25.844 
c 61.016 25.762 60.383 25.813 60.176 26.731 c 60.59 29.462 60.523 32.68 
59.891 35.344 c 59.25 38.032 58.043 40.704 57.031 43.262 c 56.207 45.337
 54.598 46.536 52.953 47.973 c 52.207 48.626 51.348 49.653 50.465 50.067
 c 51.867 49.879 53.648 49.618 54.984 49.965 c 53.395 51.344 51.484 52.126
 49.766 53.333 c 47.801 54.712 46.07 55.001 43.797 55.532 c 42.023 55.946
 40.281 56.79 38.449 56.864 c 39.219 57.571 40.363 57.856 41.141 58.637 
c 39.309 59.301 37.449 59.602 35.582 59.645 c h
43.254 48.047 m 43.398 48.059 43.555 48.047 43.734 48.004 c 44.074 47.278
 43.906 46.692 44.051 45.942 c 44.449 45.942 45.219 46.184 45.914 46.11 
c 46.148 45.044 44.566 44.786 44.535 43.911 c 44.512 43.047 45.707 42.665
 44.383 41.973 c 43.824 41.68 43.57 43.161 43.02 43.09 c 41.984 42.954 41.512
 41.649 40.316 41.973 c 40.52 42.981 40.523 43.493 41.199 44.356 c 40.926
 44.891 l 38.68 46.426 40.734 47.426 42.152 45.942 c 42.137 46.743 42.262
 47.969 43.254 48.047 c h
43.254 48.047 m f
Q Q
showpage
%%Trailer
end restore
%%EOF
